…
2. Make a panel plot containing a time series plot (i.e. type = "l") of the 5-minute interval (x-axis) and the average number of steps taken, averaged across all weekday days or weekend days (y-axis). See the README file in the GitHub repository to see an example of what this plot should look like using simulated data.


```r
actByDayWInt<-activity2%>%group_by(day_fact,interval)%>%summarise(Steps=mean(steps,na.rm=T));actByDayWInt
```

```
## Source: local data frame [576 x 3]
## Groups: day_fact [?]
## 
##    day_fact interval      Steps
##      <fctr>    <int>      <dbl>
## 1   weekday        0 2.25115304
## 2   weekday        5 0.44528302
## 3   weekday       10 0.17316562
## 4   weekday       15 0.19790356
## 5   weekday       20 0.09895178
## 6   weekday       25 1.59035639
## 7   weekday       30 0.69266247
## 8   weekday       35 1.13794549
## 9   weekday       40 0.00000000
## 10  weekday       45 1.79622642
## # ... with 566 more rows
```
…
